{
  "name": "",
  "author": "",
  "color": [
    "#0d1013",
    "#fc6028",
    "#aac441",
    "#fda543",
    "#2d91d0",
    "#bb00bb",
    "#86e2bf",
    "#bbbbbb",
    "#555555",
    "#ea5965",
    "#c1e436",
    "#ffec88",
    "#5555ff",
    "#ff55ff",
    "#99ffda",
    "#ffffff"
  ],
  "foreground": "#e0dac4",
  "background": "#0d1013"
}
